[gd_scene load_steps=2 format=2]

[ext_resource path="res://sprites/items/you-text.png" type="Texture" id=1]

[node name="ItemsTileSet" type="Node2D"]

[node name="You" type="Sprite" parent="."]
texture = ExtResource( 1 )
