[gd_scene load_steps=3 format=2]

[ext_resource path="res://sprites/particles/drape.png" type="Texture" id=1]

[sub_resource type="Curve" id=1]
_data = [ Vector2( 0, 0.1172 ), 0.0, 0.0, 0, 0, Vector2( 1, 1 ), 0.0, 0.0, 0, 0 ]

[node name="ScreenFillCPUParticles2D" type="CPUParticles2D"]
emitting = false
amount = 16
lifetime = 6.0
one_shot = true
speed_scale = 2.0
explosiveness = 0.8
randomness = 0.5
texture = ExtResource( 1 )
spread = 180.0
gravity = Vector2( 0, 0 )
initial_velocity = 60.0
angular_velocity = 80.0
angular_velocity_random = 1.0
scale_amount = 5.0
scale_amount_curve = SubResource( 1 )
color = Color( 0, 0, 0, 1 )
