[gd_scene load_steps=3 format=2]

[ext_resource path="res://addons/godot-plugin-hexagonal-tilemap/sprite/kenney/tileRock.png" type="Texture" id=1]
[ext_resource path="res://addons/godot-plugin-hexagonal-tilemap/sprite/kenney/tileRock_full.png" type="Texture" id=2]

[node name="KenneyGroundTileSet" type="Node2D"]

[node name="Rock" type="Sprite" parent="."]
texture = ExtResource( 1 )
offset = Vector2( -32, -45 )

[node name="RockFull" type="Sprite" parent="."]
texture = ExtResource( 2 )
offset = Vector2( -32, -45 )
